…
#mean temperature by month
Month_temp <- montemar_date %>% 
  group_by(year,month) %>%  
  dplyr::summarize(mean_temp = mean(V6, na.rm=T), SD=sd(V6,na.rm=T), n=n())

Month_temp
```

```
## # A tibble: 22 × 5
## # Groups:   year [2]
##     year month mean_temp    SD     n
##    <dbl> <dbl>     <dbl> <dbl> <int>
##  1  2021     1      15.4 1.07   1342
##  2  2021     2      14.5 1.07   4032
##  3  2021     3      14.6 0.953  4464
##  4  2021     4      13.9 0.611  4320
##  5  2021     5      14.1 0.888  4464
##  6  2021     6      12.6 0.521  4320
##  7  2021     7      12.2 0.159  4464
##  8  2021     8      12.5 0.198  4464
##  9  2021     9      12.5 0.410  4320
## 10  2021    10      12.2 0.644  4464
## # ℹ 12 more rows
```
…
